{
  "project_info": {
    "project_number": "1000654976315",
    "firebase_url": "https://project-118788682376194800.firebaseio.com",
    "project_id": "project-118788682376194800",
    "storage_bucket": "project-118788682376194800.appspot.com"
  },
  "client": [
    {
      "client_info": {
        "mobilesdk_app_id": "1:1000654976315:android:6b49ed06180854fd",
        "android_client_info": {
          "package_name": "cleanslatetechnologies.com.hoppiapp"
        }
      },
      "oauth_client": [
        {
          "client_id": "1000654976315-ngdaqfmtqtk2ogd6mkgphsvcrn7hkj3d.apps.googleusercontent.com",
          "client_type": 3
        }
      ],
      "api_key": [
        {
          "current_key": "AIzaSyDroO1TV6s3QICXnctBINWVqU02gVbb0IU"
        }
      ],
      "services": {
        "analytics_service": {
          "status": 1
        },
        "appinvite_service": {
          "status": 1,
          "other_platform_oauth_client": []
        },
        "ads_service": {
          "status": 2
        }
      }
    }
  ],
  "configuration_version": "1"
}